(module ALPHA_POT_9MM (layer F.Cu) (tedit 57235177)
  (fp_text reference REF** (at 0 2.3) (layer F.SilkS)
    (effects (font (size 1 1) (thickness 0.15)))
  )
  (fp_text value ALPHA_POT_9MM (at 0 -13.4) (layer F.Fab)
    (effects (font (size 1 1) (thickness 0.15)))
  )
  (fp_circle (center 0 -7.4) (end 3.2 -9.2) (layer F.SilkS) (width 0.15))
  (fp_line (start -4.75 -12.4) (end 4.75 -12.4) (layer F.SilkS) (width 0.15))
  (fp_line (start -4.75 -1) (end -4.75 -12.35) (layer F.SilkS) (width 0.15))
  (fp_line (start 4.75 -1) (end 4.75 -12.35) (layer F.SilkS) (width 0.15))
  (fp_line (start -4.75 -1) (end 4.75 -1) (layer F.SilkS) (width 0.15))
  (pad "" thru_hole rect (at 4.8 -7.5) (size 2 2) (drill oval 1.8 1.1) (layers *.Cu *.Mask F.SilkS))
  (pad 1 thru_hole circle (at -2.5 0) (size 2 2) (drill 1) (layers *.Cu *.Mask F.SilkS))
  (pad 3 thru_hole circle (at 2.5 0) (size 2 2) (drill 1) (layers *.Cu *.Mask F.SilkS))
  (pad 2 thru_hole circle (at 0 0) (size 2 2) (drill 1) (layers *.Cu *.Mask F.SilkS))
  (pad "" thru_hole rect (at -4.8 -7.5) (size 2 2) (drill oval 1.8 1.1) (layers *.Cu *.Mask F.SilkS))
)
